<svg width="100" height="100" viewBox="0 0 100 100" fill="none" xmlns="http://www.w3.org/2000/svg">
<path d="M18.1819 13.6368C18.1819 8.61604 22.252 4.5459 27.2728 4.5459H74.026C79.0468 4.5459 83.117 8.61604 83.117 13.6368V86.3641C83.117 91.3848 79.0468 95.455 74.026 95.455H27.2728C22.252 95.455 18.1819 91.3848 18.1819 86.3641V13.6368Z" fill="#F2F4F8"/>
<path d="M29.5454 47.5659C29.5454 46.2211 30.6356 45.1309 31.9805 45.1309H69.3181C70.663 45.1309 71.7532 46.2211 71.7532 47.5659C71.7532 48.9108 70.663 50.001 69.3181 50.001H31.9805C30.6356 50.001 29.5454 48.9108 29.5454 47.5659Z" fill="#D2D2D2"/>
<path d="M29.5454 58.9292C29.5454 57.5844 30.6356 56.4941 31.9805 56.4941H69.3181C70.663 56.4941 71.7532 57.5844 71.7532 58.9292C71.7532 60.2741 70.663 61.3643 69.3181 61.3643H31.9805C30.6356 61.3643 29.5454 60.2741 29.5454 58.9292Z" fill="#D2D2D2"/>
<path d="M29.7026 19.9868C29.7026 18.642 30.7929 17.5518 32.1377 17.5518C33.4825 17.5518 34.5728 18.642 34.5728 19.9868C34.5728 21.3317 33.4825 22.4219 32.1377 22.4219C30.7929 22.4219 29.7026 21.3317 29.7026 19.9868Z" fill="#1565C0"/>
<path d="M57.1428 19.9673C57.1428 18.6224 58.233 17.5322 59.5779 17.5322H69.3181C70.663 17.5322 71.7532 18.6224 71.7532 19.9673C71.7532 21.3121 70.663 22.4024 69.3181 22.4024H59.5779C58.233 22.4024 57.1428 21.3121 57.1428 19.9673Z" fill="#D2D2D2"/>
<path d="M29.5454 70.2935C29.5454 68.9486 30.6356 67.8584 31.9805 67.8584H69.3181C70.663 67.8584 71.7532 68.9486 71.7532 70.2935C71.7532 71.6383 70.663 72.7285 69.3181 72.7285H31.9805C30.6356 72.7285 29.5454 71.6383 29.5454 70.2935Z" fill="#D2D2D2"/>
<path d="M29.5454 81.6567C29.5454 80.3119 30.6356 79.2217 31.9805 79.2217H69.3181C70.663 79.2217 71.7532 80.3119 71.7532 81.6567C71.7532 83.0016 70.663 84.0918 69.3181 84.0918H31.9805C30.6356 84.0918 29.5454 83.0016 29.5454 81.6567Z" fill="#D2D2D2"/>
<path fill-rule="evenodd" clip-rule="evenodd" d="M46 73L60.0625 87L76 59L70.1307 61.739L59.2295 80.891L49.6108 71.315L46 73Z" fill="#19A939"/>
</svg>
