<svg width="24" height="24" viewBox="0 0 24 24" fill="none" xmlns="http://www.w3.org/2000/svg">
<path d="M5.85449 21.1924H16.437" stroke="#616161" stroke-width="1.2" stroke-linejoin="round"/>
<path d="M10.5546 17.0555L7.02246 19.1414L7.26234 15.0496L14.6638 2.94092C14.6827 2.90961 14.7076 2.88235 14.7371 2.86068C14.7666 2.83902 14.8 2.82338 14.8355 2.81466C14.8711 2.80594 14.908 2.80431 14.9441 2.80987C14.9803 2.81543 15.015 2.82806 15.0462 2.84705L17.8657 4.5853C17.897 4.60422 17.9242 4.62912 17.9459 4.65859C17.9676 4.68806 17.9832 4.72152 17.9919 4.75704C18.0006 4.79256 18.0023 4.82945 17.9967 4.8656C17.9911 4.90175 17.9785 4.93645 17.9595 4.96772L10.5546 17.0555Z" stroke="#616161" stroke-width="1.2" stroke-linecap="round" stroke-linejoin="round"/>
<path d="M13.4854 4.86719L16.7776 6.88356" stroke="#616161" stroke-linecap="round" stroke-linejoin="round"/>
<path d="M7.2627 15.0391L10.5549 17.0554" stroke="#616161" stroke-width="1.2" stroke-linecap="round" stroke-linejoin="round"/>
</svg>
