<svg width="140" height="140" viewBox="0 0 140 140" fill="none" xmlns="http://www.w3.org/2000/svg">
<path d="M23.3333 87.5003C23.3333 87.5003 29.1666 81.667 46.6666 81.667C64.1666 81.667 75.8332 93.3337 93.3332 93.3337C110.833 93.3337 116.667 87.5003 116.667 87.5003V17.5003C116.667 17.5003 110.833 23.3337 93.3332 23.3337C75.8332 23.3337 64.1666 11.667 46.6666 11.667C29.1666 11.667 23.3333 17.5003 23.3333 17.5003V87.5003Z" stroke="white" stroke-opacity="0.44" stroke-width="8" stroke-linecap="round" stroke-linejoin="round"/>
<path d="M23.3333 128.333V87.5" stroke="white" stroke-opacity="0.44" stroke-width="8" stroke-linecap="round" stroke-linejoin="round"/>
</svg>
