<svg width="24" height="24" viewBox="0 0 24 24" fill="none" xmlns="http://www.w3.org/2000/svg">
<path d="M14.5208 11.9998L6.71973 3.85838L8.57713 1.91992L18.2397 11.9998L8.57713 22.0799L6.71973 20.1415L14.5208 11.9998Z" fill="#1170B4"/>
</svg>
