<svg width="16" height="20" viewBox="0 0 16 20" fill="none" xmlns="http://www.w3.org/2000/svg">
<path d="M9 18V11.3478C9 9.94348 9.6 8.65 10.6 7.8L14.6667 4.6587L15 1H1L1.33333 4.76957L5.36667 7.8C6.36667 8.65 6.96667 9.94348 7 11.3478V16.1522L9 18Z" stroke="white" stroke-width="1.5" stroke-miterlimit="10"/>
</svg>
