<svg width="18" height="18" viewBox="0 0 18 18" fill="none" xmlns="http://www.w3.org/2000/svg">
<g clip-path="url(#clip0)">
<path d="M15.456 2.90222H2.54297V17.25H15.456V2.90222Z" stroke="#151515" stroke-width="1.5" stroke-miterlimit="10"/>
<path d="M7.56445 2.90217V2.18478C7.56445 1.39565 8.21011 0.75 8.99924 0.75C9.78837 0.75 10.434 1.39565 10.434 2.18478V2.90217" stroke="#151515" stroke-width="1.5" stroke-miterlimit="10"/>
<path d="M12.228 2.90222V4.337C12.228 4.73157 11.9052 5.0544 11.5106 5.0544H6.48888C6.09431 5.0544 5.77148 4.73157 5.77148 4.337V2.90222" stroke="#151515" stroke-width="1.5" stroke-miterlimit="10"/>
</g>
<defs>
<clipPath id="clip0">
<rect width="18" height="18" fill="white"/>
</clipPath>
</defs>
</svg>
