<svg width="102" height="28" viewBox="0 0 102 28" fill="none" xmlns="http://www.w3.org/2000/svg">
<path fill-rule="evenodd" clip-rule="evenodd" d="M12.3618 0.114107C10.2602 0.388987 8.0943 1.22374 6.27169 2.46158C5.28675 3.13032 3.76978 4.58062 2.9151 5.67047L2.40227 6.32441L3.25299 5.63178C5.88501 3.48901 9.54797 2.85778 13.5381 3.85942C14.8617 4.19174 17.2254 5.40452 18.3202 6.31327C19.6406 7.40898 20.8207 8.96126 21.6748 10.7254C22.6549 12.7501 22.8928 13.7355 22.9054 15.8221C22.911 16.7687 22.9487 17.5406 22.989 17.5375C23.1888 17.5223 24.3001 15.8788 24.8456 14.7919C25.6211 13.2467 25.9194 11.9458 25.9194 10.1102C25.9194 8.39802 25.6686 7.30363 24.9449 5.85743C22.9661 1.90361 17.557 -0.565328 12.3618 0.114107ZM26.9558 19.5426C27.7685 17.5851 28.1286 15.292 27.9679 13.0946C27.8812 11.9073 27.3837 9.86837 26.8672 8.58327L26.5573 7.81217L26.7318 8.89523C27.2714 12.246 25.9866 15.7338 23.1241 18.6886C22.1745 19.6687 19.9424 21.1093 18.6079 21.6031C16.9989 22.1987 15.0645 22.4446 13.1096 22.3021C10.8662 22.1386 9.89383 21.852 8.08043 20.8196C7.25791 20.3511 6.5706 19.9978 6.55312 20.0342C6.46639 20.2149 7.33401 21.999 8.00256 23.0149C8.953 24.4592 9.9304 25.3679 11.5201 26.2858C13.0029 27.1418 14.0761 27.4718 15.6904 27.5682C20.1039 27.8314 24.9466 24.3814 26.9558 19.5426ZM7.90362 26.579C5.92031 25.6195 4.11444 24.1612 2.82558 22.4786C-0.360411 18.3191 -0.926795 12.4002 1.50791 8.70962C2.39851 7.3598 3.22086 6.59536 4.70361 5.73929C6.29334 4.82146 7.56907 4.42939 9.29507 4.32842C10.5091 4.25738 12.488 4.39803 12.6011 4.5635C12.6239 4.59686 11.9743 5.01542 11.1573 5.49351C9.35653 6.54775 8.62214 7.24652 7.35877 9.10765C6.25802 10.7294 5.50376 12.5275 5.21501 14.2188C4.97543 15.6214 5.10699 18.2748 5.48097 19.5872C6.6086 23.5436 8.98674 26.4002 12.1585 27.6082L13.1836 27.9986L12.3609 27.8815C10.9897 27.6862 8.97523 27.0976 7.90362 26.579ZM34.1872 6.84046V21.1655H36.0017V10.5619L45.3041 21.1655H47.2111L47.0251 6.84046H45.3041V16.0504L37.118 6.84046H34.1872ZM50.4205 6.84046V21.1655H53.4438V6.84046H50.4205ZM56.9322 6.84046V8.79445H62.0485V21.1655H65.2114V8.79445H70.3277V6.84046H56.9322ZM73.7231 21.1655V6.84046H84.9791V8.79445H76.8859V13.2596H82.6535V14.7945H76.8859V19.3992H84.9791V21.1655H73.7231ZM101.477 10.198C99.2902 5.60855 86.4948 5.66323 86.4948 14.0803C86.4948 22.4974 99.3685 23.1318 101.776 17.3761L100.572 17.004C98.1429 20.1773 89.721 20.8202 89.721 14.0803C89.721 7.34041 98.0643 8.12762 100.329 10.7486L101.477 10.198Z" fill="white"/>
</svg>
